Spatially annotated tree sequences
…
#> total:
#>   - 125 'sampled' individuals
#>   - 125 'remembered' individuals
#>   - 300 'retained' individuals
#>   - 35 'alive' individuals
#> --------------------- 
#> oldest sampled individual: 40000 time units 'before present' 
#> youngest sampled individual: 0 time units 'before present' 
#> 
#> oldest node: 2702925 time units 'before present' 
#> youngest node: 0 time units 'before present' 
#> --------------------- 
#> overview of the underlying sf object:
#> 
#> # A tibble: 577 × 12
#>    name  pop   node_id  time time_ts…¹           location sampled remembered
#>    <chr> <fct>   <int> <dbl>     <dbl>        <POINT [m]> <lgl>   <lgl>     
#>  1 AFR_1 AFR       180     0         0 (2998019 580072.3) TRUE    TRUE      
#>  2 AFR_1 AFR       181     0         0 (2998019 580072.3) TRUE    TRUE      
#>  3 AFR_2 AFR       182     0         0  (3214580 1133048) TRUE    TRUE      
#>  4 AFR_2 AFR       183     0         0  (3214580 1133048) TRUE    TRUE      
#>  5 AFR_3 AFR       184     0         0 (3458466 600740.2) TRUE    TRUE      
#>  6 AFR_3 AFR       185     0         0 (3458466 600740.2) TRUE    TRUE      
#>  7 AFR_4 AFR       186     0         0  (3240591 1109739) TRUE    TRUE      
#>  8 AFR_4 AFR       187     0         0  (3240591 1109739) TRUE    TRUE      
#>  9 AFR_5 AFR       188     0         0  (3311509 1357603) TRUE    TRUE      
#> 10 AFR_5 AFR       189     0         0  (3311509 1357603) TRUE    TRUE      
#> # … with 567 more rows, 4 more variables: retained <lgl>, alive <lgl>,
#> #   pedigree_id <dbl>, ind_id <dbl>, and abbreviated variable name ¹​time_tskit
#> # ℹ Use `print(n = ...)` to see more rows, and `colnames()` to see all variable names
…
lineages

#> Simple feature collection with 124 features and 12 fields
#> Active geometry column: connection
#> Geometry type: LINESTRING
#> Dimension:     XY
#> Bounding box:  xmin: 3343176 ymin: 368874.9 xmax: 8450665 ymax: 4574569
#> Projected CRS: ETRS89-extended / LAEA Europe
#> # A tibble: 124 × 15
#>    name   pop   node_id level child_id parent_id child…¹ paren…² child…³ paren…⁴
#>  * <chr>  <fct>   <int> <fct>    <int>     <int>   <dbl>   <dbl> <fct>   <fct>  
#>  1 EUR_51 EUR       242 1          242       263       0     520 EUR     EUR    
#>  2 EUR_51 EUR       242 2          263       267     520     790 EUR     EUR    
#>  3 EUR_51 EUR       242 3          267       315     790    8200 EUR     ANA    
#>  4 EUR_51 EUR       242 3          267       320     790    8860 EUR     ANA    
#>  5 EUR_51 EUR       242 4          315       323    8200    9220 ANA     ANA    
#>  6 EUR_51 EUR       242 4          320       341    8860   13780 ANA     ANA    
#>  7 EUR_51 EUR       242 5          323       351    9220   15490 ANA     ANA    
#>  8 EUR_51 EUR       242 5          341       349   13780   15250 ANA     ANA    
#>  9 EUR_51 EUR       242 6          351       375   15490   19540 ANA     ANA    
#> 10 EUR_51 EUR       242 6          351       413   15490   23920 ANA     ANA    
#> # … with 114 more rows, 5 more variables: child_location <POINT [m]>,
#> #   parent_location <POINT [m]>, connection <LINESTRING [m]>, left_pos <dbl>,
#> #   right_pos <dbl>, and abbreviated variable names ¹​child_time, ²​parent_time,
#> #   ³​child_pop, ⁴​parent_pop
#> # ℹ Use `print(n = ...)` to see more rows, and `colnames()` to see all variable names
…
We also see that the other chromosome traces of its ancestry to
the Anatolia (triangles). This makes sense, because we have simulated
European ancestry as being part Anatolian.

Let’s look at the spatial ancestry of another sample. For instance,
we know that the simulated history of the Anatolian population in our
model is much simpler. According to the demographic graph above,
Anatolians split from the ancestral population of Eurasians in Anatolia
and then expanded in a wave to Europe. We have sampled the following
individuals:

ts_samples(ts) %>% filter(pop == "ANA")

#> # A tibble: 24 × 3
#>    name    time pop  
#>    <chr>  <int> <chr>
#>  1 ANA_1  27000 ANA  
#>  2 ANA_2  26000 ANA  
#>  3 ANA_3  25000 ANA  
#>  4 ANA_4  24000 ANA  
#>  5 ANA_5  23000 ANA  
#>  6 ANA_6  22000 ANA  
#>  7 ANA_7  21000 ANA  
#>  8 ANA_8  20000 ANA  
#>  9 ANA_9  19000 ANA  
#> 10 ANA_10 18000 ANA  
#> # … with 14 more rows
#> # ℹ Use `print(n = ...)` to see more rows
…
lineages <-
  ts_samples(ts) %>%
  pull(name) %>%
  ts_ancestors(ts, x = .)
  
select(lineages, connection, child_time, parent_time)

#> Simple feature collection with 6863 features and 2 fields
#> Geometry type: LINESTRING
#> Dimension:     XY
#> Bounding box:  xmin: 2521712 ymin: 329589.1 xmax: 8559748 ymax: 4814330
#> Projected CRS: ETRS89-extended / LAEA Europe
#> # A tibble: 6,863 × 3
#>                              connection child_time parent_time
#>                        <LINESTRING [m]>      <dbl>       <dbl>
#>  1   (8559748 3193326, 7794902 2294646)      40000       42640
#>  2   (8559748 3193326, 7044473 1221506)      40000       48610
#>  3   (7794902 2294646, 7044473 1221506)      42640       48610
#>  4   (7044473 1221506, 4132744 1097930)      48610       85690
#>  5  (7044473 1221506, 3459546 578367.8)      48610      103420
#>  6  (7044473 1221506, 3844983 368874.9)      48610      104440
#>  7  (7044473 1221506, 3844983 368874.9)      48610      104440
#>  8  (4132744 1097930, 3844983 368874.9)      85690      104440
#>  9 (3459546 578367.8, 3844983 368874.9)     103420      104440
#> 10   (8559748 3193326, 7305165 1650688)      40000       46990
#> # … with 6,853 more rows
#> # ℹ Use `print(n = ...)` to see more rows
…
